,result,table,_start,_stop,_time,_value,_field,_measurement,sensor_id
,_result,project1,2022-02-24T17:33:34.987018118Z,2022-03-26T17:33:34.987018118Z,2022-02-24T18:00:00Z,,humidity,airSensors,TLM0100
,_result,project2,2022-02-24T17:33:34.987018118Z,2022-03-26T17:33:34.987018118Z,2022-02-24T19:00:00Z,,humidity,airSensors,TLM0100
,_result,project3,2022-02-24T17:33:34.987018118Z,2022-03-26T17:33:34.987018118Z,2022-02-24T20:00:00Z,,humidity,airSensors,TLM0100
,_result,project4,2022-02-24T17:33:34.987018118Z,2022-03-26T17:33:34.987018118Z,2022-02-24T21:00:00Z,,humidity,airSensors,TLM0100
,_result,project5,2022-02-24T17:33:34.987018118Z,2022-03-26T17:33:34.987018118Z,2022-02-24T22:00:00Z,,humidity,airSensors,TLM0100